Appendix E — dplyr 速查表 – 数据驱动的可重复性研究
…
::: :::

rowwise(.data, ...) 将数据转换为逐行分组模式，便于按行运算（适合处理列表类列数据），详见 tidyr 速查表中的列表列工作流

::: {.cell}

starwars |>
  rowwise() |>
  mutate(film_count = length(films))

::: {.cell-output .cell-output-stdout}

# A tibble: 87 × 15
# Rowwise: 
   name     height  mass hair_color skin_color eye_color birth_year sex   gender
   <chr>     <int> <dbl> <chr>      <chr>      <chr>          <dbl> <chr> <chr> 
 1 Luke Sk…    172    77 blond      fair       blue            19   male  mascu…
 2 C-3PO       167    75 <NA>       gold       yellow         112   none  mascu…
 3 R2-D2        96    32 <NA>       white, bl… red             33   none  mascu…
 4 Darth V…    202   136 none       white      yellow          41.9 male  mascu…
 5 Leia Or…    150    49 brown      light      brown           19   fema… femin…
 6 Owen La…    178   120 brown, gr… light      blue            52   male  mascu…
 7 Beru Wh…    165    75 brown      light      blue            47   fema… femin…
 8 R5-D4        97    32 <NA>       white, red red             NA   none  mascu…
 9 Biggs D…    183    84 black      light      brown           24   male  mascu…
10 Obi-Wan…    182    77 auburn, w… fair       blue-gray       57   male  mascu…
# ℹ 77 more rows
# ℹ 6 more variables: homeworld <chr>, species <chr>, films <list>,
#   vehicles <list>, starships <list>, film_count <int>
…
&

其他运算符参见 ?base::Logic 和 ?Comparison

E.3.2 排序观测

arrange(.data, ..., .by_group = FALSE) 按列值升序排列，配合 desc() 实现降序

::: {.cell}

mtcars |> arrange(mpg)

::: {.cell-output .cell-output-stdout}

# A tibble: 32 × 11
     mpg   cyl  disp    hp  drat    wt  qsec    vs    am  gear  carb
   <dbl> <dbl> <dbl> <dbl> <dbl> <dbl> <dbl> <dbl> <dbl> <dbl> <dbl>
 1  10.4     8  472    205  2.93  5.25  18.0     0     0     3     4
 2  10.4     8  460    215  3     5.42  17.8     0     0     3     4
 3  13.3     8  350    245  3.73  3.84  15.4     0     0     3     4
 4  14.3     8  360    245  3.21  3.57  15.8     0     0     3     4
 5  14.7     8  440    230  3.23  5.34  17.4     0     0     3     4
 6  15       8  301    335  3.54  3.57  14.6     0     1     5     8
 7  15.2     8  276.   180  3.07  3.78  18       0     0     3     3
 8  15.2     8  304    150  3.15  3.44  17.3     0     0     3     2
 9  15.5     8  318    150  2.76  3.52  16.9     0     0     3     2
10  15.8     8  351    264  4.22  3.17  14.5     0     1     5     4
# ℹ 22 more rows

:::

mtcars |> arrange(desc(mpg))

::: {.cell-output .cell-output-stdout}

# A tibble: 32 × 11
     mpg   cyl  disp    hp  drat    wt  qsec    vs    am  gear  carb
   <dbl> <dbl> <dbl> <dbl> <dbl> <dbl> <dbl> <dbl> <dbl> <dbl> <dbl>
 1  33.9     4  71.1    65  4.22  1.84  19.9     1     1     4     1
 2  32.4     4  78.7    66  4.08  2.2   19.5     1     1     4     1
 3  30.4     4  75.7    52  4.93  1.62  18.5     1     1     4     2
 4  30.4     4  95.1   113  3.77  1.51  16.9     1     1     5     2
 5  27.3     4  79      66  4.08  1.94  18.9     1     1     4     1
 6  26       4 120.     91  4.43  2.14  16.7     0     1     5     2
 7  24.4     4 147.     62  3.69  3.19  20       1     0     4     2
 8  22.8     4 108      93  3.85  2.32  18.6     1     1     4     1
 9  22.8     4 141.     95  3.92  3.15  22.9     1     0     4     2
10  21.5     4 120.     97  3.7   2.46  20.0     1     0     3     1
# ℹ 22 more rows
…
 [1] 2.620 2.875 2.320 3.215 3.440 3.460 3.570 3.190 3.150 3.440 3.440 4.070
[13] 3.730 3.780 5.250 5.424 5.345 2.200 1.615 1.835 2.465 3.520 3.435 3.840
[25] 3.845 1.935 2.140 1.513 3.170 2.770 3.570 2.780

::: :::

select(.data, ...) 提取列生成新表

::: {.cell}

mtcars |> select(mpg, wt)

::: {.cell-output .cell-output-stdout}

# A tibble: 32 × 2
     mpg    wt
   <dbl> <dbl>
 1  21    2.62
 2  21    2.88
 3  22.8  2.32
 4  21.4  3.22
 5  18.7  3.44
 6  18.1  3.46
 7  14.3  3.57
 8  24.4  3.19
 9  22.8  3.15
10  19.2  3.44
# ℹ 22 more rows

::: :::

relocate(.data, ..., .before = NULL, .after = NULL) 调整列位置

::: {.cell}

mtcars |> relocate(mpg, cyl, after = last_col())

::: {.cell-output .cell-output-stdout}

# A tibble: 32 × 11
     mpg   cyl after  disp    hp  drat    wt  qsec    vs    am  gear
   <dbl> <dbl> <dbl> <dbl> <dbl> <dbl> <dbl> <dbl> <dbl> <dbl> <dbl>
 1  21       6     4  160    110  3.9   2.62  16.5     0     1     4
 2  21       6     4  160    110  3.9   2.88  17.0     0     1     4
 3  22.8     4     1  108     93  3.85  2.32  18.6     1     1     4
 4  21.4     6     1  258    110  3.08  3.22  19.4     1     0     3
 5  18.7     8     2  360    175  3.15  3.44  17.0     0     0     3
 6  18.1     6     1  225    105  2.76  3.46  20.2     1     0     3
 7  14.3     8     4  360    245  3.21  3.57  15.8     0     0     3
 8  24.4     4     2  147.    62  3.69  3.19  20       1     0     4
 9  22.8     4     2  141.    95  3.92  3.15  22.9     1     0     4
10  19.2     6     4  168.   123  3.92  3.44  18.3     1     0     4
# ℹ 22 more rows

::: :::

E.4.1.1 select() 和 across() 辅助函数

mtcars |> select(mpg:cyl)

# A tibble: 32 × 2
     mpg   cyl
   <dbl> <dbl>
 1  21       6
 2  21       6
 3  22.8     4
 4  21.4     6
 5  18.7     8
 6  18.1     6
 7  14.3     8
 8  24.4     4
 9  22.8     4
10  19.2     6
# ℹ 22 more rows
…
::: :::

E.4.3 创建新变量

对列应用向量化函数（接收向量输入并返回等长向量，参见向量化函数章节）生成新列

mutate(.data, ..., .keep = "all", .before = NULL, .after = NULL) 创建新列，类似函数 add_column()

::: {.cell}

mtcars |> mutate(gpm = 1 / mpg)

::: {.cell-output .cell-output-stdout}

# A tibble: 32 × 12
     mpg   cyl  disp    hp  drat    wt  qsec    vs    am  gear  carb    gpm
   <dbl> <dbl> <dbl> <dbl> <dbl> <dbl> <dbl> <dbl> <dbl> <dbl> <dbl>  <dbl>
 1  21       6  160    110  3.9   2.62  16.5     0     1     4     4 0.0476
 2  21       6  160    110  3.9   2.88  17.0     0     1     4     4 0.0476
 3  22.8     4  108     93  3.85  2.32  18.6     1     1     4     1 0.0439
 4  21.4     6  258    110  3.08  3.22  19.4     1     0     3     1 0.0467
 5  18.7     8  360    175  3.15  3.44  17.0     0     0     3     2 0.0535
 6  18.1     6  225    105  2.76  3.46  20.2     1     0     3     1 0.0552
 7  14.3     8  360    245  3.21  3.57  15.8     0     0     3     4 0.0699
 8  24.4     4  147.    62  3.69  3.19  20       1     0     4     2 0.0410
 9  22.8     4  141.    95  3.92  3.15  22.9     1     0     4     2 0.0439
10  19.2     6  168.   123  3.92  3.44  18.3     1     0     4     4 0.0521
# ℹ 22 more rows

:::

mtcars |> mutate(mtcars, gpm = 1 / mpg, .keep = "none")

::: {.cell-output .cell-output-stdout}

# A tibble: 32 × 12
     mpg   cyl  disp    hp  drat    wt  qsec    vs    am  gear  carb    gpm
   <dbl> <dbl> <dbl> <dbl> <dbl> <dbl> <dbl> <dbl> <dbl> <dbl> <dbl>  <dbl>
 1  21       6  160    110  3.9   2.62  16.5     0     1     4     4 0.0476
 2  21       6  160    110  3.9   2.88  17.0     0     1     4     4 0.0476
 3  22.8     4  108     93  3.85  2.32  18.6     1     1     4     1 0.0439
 4  21.4     6  258    110  3.08  3.22  19.4     1     0     3     1 0.0467
 5  18.7     8  360    175  3.15  3.44  17.0     0     0     3     2 0.0535
 6  18.1     6  225    105  2.76  3.46  20.2     1     0     3     1 0.0552
 7  14.3     8  360    245  3.21  3.57  15.8     0     0     3     4 0.0699
 8  24.4     4  147.    62  3.69  3.19  20       1     0     4     2 0.0410
 9  22.8     4  141.    95  3.92  3.15  22.9     1     0     4     2 0.0439
10  19.2     6  168.   123  3.92  3.44  18.3     1     0     4     4 0.0521
# ℹ 22 more rows

::: :::

rename(.data, ...) 重命名列，rename_with() 可通过函数批量重命名

::: {.cell}

mtcars |> rename(miles_per_gallon = mpg)

::: {.cell-output .cell-output-stdout}

# A tibble: 32 × 11
   miles_per_gallon   cyl  disp    hp  drat    wt  qsec    vs    am  gear  carb
              <dbl> <dbl> <dbl> <dbl> <dbl> <dbl> <dbl> <dbl> <dbl> <dbl> <dbl>
 1             21       6  160    110  3.9   2.62  16.5     0     1     4     4
 2             21       6  160    110  3.9   2.88  17.0     0     1     4     4
 3             22.8     4  108     93  3.85  2.32  18.6     1     1     4     1
 4             21.4     6  258    110  3.08  3.22  19.4     1     0     3     1
 5             18.7     8  360    175  3.15  3.44  17.0     0     0     3     2
 6             18.1     6  225    105  2.76  3.46  20.2     1     0     3     1
 7             14.3     8  360    245  3.21  3.57  15.8     0     0     3     4
 8             24.4     4  147.    62  3.69  3.19  20       1     0     4     2
 9             22.8     4  141.    95  3.92  3.15  22.9     1     0     4     2
10             19.2     6  168.   123  3.92  3.44  18.3     1     0     4     4
# ℹ 22 more rows
…
dplyr::case_when() 多条件判断

::: {.cell}

starwars |>
  mutate(type = case_when(
    height > 200 | mass > 200 ~ "large",
    species == "Droid" ~ "robot",
    TRUE ~ "other"
  ))

::: {.cell-output .cell-output-stdout}

# A tibble: 87 × 15
   name     height  mass hair_color skin_color eye_color birth_year sex   gender
   <chr>     <int> <dbl> <chr>      <chr>      <chr>          <dbl> <chr> <chr> 
 1 Luke Sk…    172    77 blond      fair       blue            19   male  mascu…
 2 C-3PO       167    75 <NA>       gold       yellow         112   none  mascu…
 3 R2-D2        96    32 <NA>       white, bl… red             33   none  mascu…
 4 Darth V…    202   136 none       white      yellow          41.9 male  mascu…
 5 Leia Or…    150    49 brown      light      brown           19   fema… femin…
 6 Owen La…    178   120 brown, gr… light      blue            52   male  mascu…
 7 Beru Wh…    165    75 brown      light      blue            47   fema… femin…
 8 R5-D4        97    32 <NA>       white, red red             NA   none  mascu…
 9 Biggs D…    183    84 black      light      brown           24   male  mascu…
10 Obi-Wan…    182    77 auburn, w… fair       blue-gray       57   male  mascu…
# ℹ 77 more rows
# ℹ 6 more variables: homeworld <chr>, species <chr>, films <list>,
#   vehicles <list>, starships <list>, type <chr>
…
