12 分组数据分析实战 – 数据驱动的可重复性研究
…
对于符合正态分布的数据，我们可以使用 ANOVA 检验来揭示每种碳源中三种共培养的最终比例的差异。由于包含多重比较，所以使用”BH”方法对 p 值进行了调整。

aov_p <- compare_means(ratio1 ~ ratio0,
                       group.by = "carbon_id",
                       data=merged,
                       method = "anova",
                       p.adjust.method = "BH") %>% 
  arrange(p.adj) %>% 
  mutate(p.adj.signif = cut(p.adj,breaks = c(0,0.01,0.05,1),labels = c("**","*","ns"))) %>%
  left_join(carbon_prefer)

aov_p

# A tibble: 71 × 9
   carbon_id .y.          p   p.adj p.format p.signif method p.adj.signif prefer
       <dbl> <chr>    <dbl>   <dbl> <chr>    <chr>    <chr>  <fct>        <chr> 
 1        14 ratio1 5.41e-7 3.8 e-5 5.4e-07  ****     Anova  **           None  
 2        23 ratio1 2.02e-6 7.20e-5 2.0e-06  ****     Anova  **           None  
 3        24 ratio1 3.46e-6 8.2 e-5 3.5e-06  ****     Anova  **           PP    
 4        31 ratio1 5.08e-6 9   e-5 5.1e-06  ****     Anova  **           None  
 5        30 ratio1 4.18e-5 5.9 e-4 4.2e-05  ****     Anova  **           None  
 6        58 ratio1 7.53e-5 8.9 e-4 7.5e-05  ****     Anova  **           PP    
 7         8 ratio1 1.45e-4 1   e-3 0.00015  ***      Anova  **           None  
 8        10 ratio1 2.17e-4 1   e-3 0.00022  ***      Anova  **           None  
 9        32 ratio1 1.11e-4 1   e-3 0.00011  ***      Anova  **           None  
10        35 ratio1 2.12e-4 1   e-3 0.00021  ***      Anova  **           None  
# ℹ 61 more rows
…
