13 测试成绩分析 – 数据驱动的可重复性研究
…
13.1 数据读取

读取全部成绩数据。这里去掉了成绩为 0 的数据，因为这些数据可能是未参加考试的学生。

# 读取数据
library(tidyverse)
# 这里使用的是不含有学生真实姓名的匿名数据
score = read_csv("./data/score/score-anonymized.csv") |> 
    filter(grade > 0) # 去掉成绩为 0 的数据

# 查看数据集的前几行
score

# A tibble: 298 × 4
   group role   name                             grade
   <dbl> <chr>  <chr>                            <dbl>
 1     1 leader 6615cc6c8c7912dbedc4a7a34a1ef30c    79
 2     1 member 019ba56b8d3607d60f2874496061643a    95
 3     1 member 4c18826f2d9fe9109c55a8c98fcd8b15    81
 4     1 member ba282a65bf882e5230af6c5d371ea2f0    79
 5     1 member c4bef7c9914dd2f984389922335b4fdc    86
 6     1 member d09c322f37e06e18ba37f385d64e6c3b    81
 7     1 member 3f7c71dfbc00799d461285593e02023a    85
 8     1 member 1b9de69574bc33486eb6bf921a93a99e    91
 9     2 leader 735ff5379fdedfc92a86ab6db937a6e5    76
10     2 member cfe087466143f41c0e13d034f7e21844    77
# ℹ 288 more rows
…
