15 转录组数据分析实战 – 数据驱动的可重复性研究
…
点的大小表示基因比例，颜色表示调整后的 p 值。

15.2.5 GSEA 结果可视化

GSEA（Gene Set Enrichment Analysis，基因集富集分析）结果。

15.2.5.1 加载预计算的基因表达数据

首先，加载预先计算好的基因表达数据，这些数据包含了不同条件下的基因表达信息。

# 加载预计算的基因表达数据
gene_expression.EC[[1]] # *E. coli* 数据

# A tibble: 4,419 × 8
   gene  baseMean log2FoldChange lfcSE   stat pvalue  padj comparison       
   <chr>    <dbl>          <dbl> <dbl>  <dbl>  <dbl> <dbl> <chr>            
 1 b0001     25.3        -1.27   1.25  -1.01  0.450  1     less_0h_vs_all_0h
 2 b0002    447.          0.609  0.365  1.67  0.858  1     less_0h_vs_all_0h
 3 b0003    239.          1.52   0.320  4.76  0.0511 0.534 less_0h_vs_all_0h
 4 b0004    291.          0.956  0.300  3.19  0.558  1     less_0h_vs_all_0h
 5 b0005     18.1        -0.381  1.22  -0.313 0.823  1     less_0h_vs_all_0h
 6 b0006    156.          0.0746 0.436  0.171 0.990  1     less_0h_vs_all_0h
 7 b0007    114.          0.932  0.390  2.39  0.569  1     less_0h_vs_all_0h
 8 b0008   3706.         -0.929  0.241 -3.86  0.615  1     less_0h_vs_all_0h
 9 b0009    219.          0.0859 0.310  0.277 0.999  1     less_0h_vs_all_0h
10 b0010    100.          0.809  0.606  1.33  0.625  1     less_0h_vs_all_0h
# ℹ 4,409 more rows

gene_expression.PP[[1]] # *P. putida* 数据

# A tibble: 5,729 × 8
   gene    baseMean log2FoldChange lfcSE   stat pvalue  padj comparison        
   <chr>      <dbl>          <dbl> <dbl>  <dbl>  <dbl> <dbl> <chr>             
 1 PP_0001    471.          0.135  0.241  0.561  1.00      1 less_0h_vs_none_0h
 2 PP_0002    376.          0.190  0.288  0.661  0.998     1 less_0h_vs_none_0h
 3 PP_0003    283.          0.0392 0.230  0.170  1.00      1 less_0h_vs_none_0h
 4 PP_0004   1565.          0.0787 0.232  0.338  1.00      1 less_0h_vs_none_0h
 5 PP_0005    410.         -0.328  0.234 -1.40   0.998     1 less_0h_vs_none_0h
 6 PP_0006   1183.          0.524  0.477  1.10   0.841     1 less_0h_vs_none_0h
 7 PP_0007     11.8         0.506  0.459  1.10   0.860     1 less_0h_vs_none_0h
 8 PP_0008    302.          0.502  0.388  1.29   0.901     1 less_0h_vs_none_0h
 9 PP_0009     30.8         1.14   0.439  2.59   0.378     1 less_0h_vs_none_0h
10 PP_0010    830.          0.0860 0.228  0.377  1.00      1 less_0h_vs_none_0h
# ℹ 5,719 more rows
…
